279 Project
…
    transpose

library(dplyr)

link = read_html(paste0("https://www.hockey-reference.com/leagues/stats.html"))

table = link |>
  html_elements("table") |> ## this code scrapes the seasonal averages from the data table
  html_table() 
df = table[[1]] |>
  select("Season", "G","SA", "SV", "SV%", "GAA") 
df = df[-c(21,42,63,84,105),] ## there is a blank column every 21 rows, so I had to remove each empty row
df

# A tibble: 106 × 6
   Season  G     SA    SV    `SV%` GAA  
   <chr>   <chr> <chr> <chr> <chr> <chr>
 1 2023-24 3.11  30.1  27.2  .903  2.91 
 2 2022-23 3.18  31.1  28.1  .904  2.97 
 3 2021-22 3.14  31.4  28.5  .907  2.92 
 4 2020-21 2.94  29.8  27.1  .908  2.74 
 5 2019-20 3.02  31.3  28.4  .910  2.82 
 6 2018-19 3.01  31.3  28.5  .910  2.81 
 7 2017-18 2.97  31.8  29.0  .912  2.78 
 8 2016-17 2.77  30.1  27.5  .913  2.59 
 9 2015-16 2.71  29.6  27.1  .915  2.51 
10 2014-15 2.73  29.8  27.3  .915  2.52 
# ℹ 96 more rows

library(ggplot2)
scoring_df = df |>
  mutate(avg_goals = as.double(G)) |>
  mutate(year_id = as.integer(substring(Season,1,4))) |> ## had to change all columns to the correct class
  filter(year_id >=1955) |> ## ensuring data from 1955-2023
  mutate(sv = as.double(SV)) |> 
  mutate(sa = as.double(SA)) |>
  mutate(sv_pct = as.double(sv/sa)) |>
  mutate(avg_goals_standard = scale(avg_goals), ## standardizing variables to compare them to one another
         sv_pct_standard = scale(sv_pct), sa_standard = scale(sa))

scoring_df ## same scoring_df used later on

# A tibble: 68 × 14
   Season  G     SA    SV    `SV%` GAA   avg_goals year_id    sv    sa sv_pct
   <chr>   <chr> <chr> <chr> <chr> <chr>     <dbl>   <int> <dbl> <dbl>  <dbl>
 1 2023-24 3.11  30.1  27.2  .903  2.91       3.11    2023  27.2  30.1  0.904
 2 2022-23 3.18  31.1  28.1  .904  2.97       3.18    2022  28.1  31.1  0.904
 3 2021-22 3.14  31.4  28.5  .907  2.92       3.14    2021  28.5  31.4  0.908
 4 2020-21 2.94  29.8  27.1  .908  2.74       2.94    2020  27.1  29.8  0.909
 5 2019-20 3.02  31.3  28.4  .910  2.82       3.02    2019  28.4  31.3  0.907
 6 2018-19 3.01  31.3  28.5  .910  2.81       3.01    2018  28.5  31.3  0.911
 7 2017-18 2.97  31.8  29.0  .912  2.78       2.97    2017  29    31.8  0.912
 8 2016-17 2.77  30.1  27.5  .913  2.59       2.77    2016  27.5  30.1  0.914
 9 2015-16 2.71  29.6  27.1  .915  2.51       2.71    2015  27.1  29.6  0.916
10 2014-15 2.73  29.8  27.3  .915  2.52       2.73    2014  27.3  29.8  0.916
# ℹ 58 more rows
# ℹ 3 more variables: avg_goals_standard <dbl[,1]>, sv_pct_standard <dbl[,1]>,
#   sa_standard <dbl[,1]>
…
Warning: There was 1 warning in `mutate()`.
ℹ In argument: `pts = as.integer(Points)`.
Caused by warning:
! NAs introduced by coercion

art_ross = art_ross[-50, ] ## erased an empty column from the canceled 2004-05 season
art_ross

# A tibble: 68 × 4
    year Winner             pts standard_pts[,1]
   <int> <chr>            <int>            <dbl>
 1  1955 Jean Beliveau       88           -1.01 
 2  1956 Gordie Howe         89           -0.987
 3  1957 Dickie Moore        84           -1.13 
 4  1958 Dickie Moore        96           -0.792
 5  1959 Bobby Hull          81           -1.21 
 6  1960 Bernie Geoffrion    95           -0.820
 7  1961 Bobby Hull          84           -1.13 
 8  1962 Gordie Howe         86           -1.07 
 9  1963 Stan Mikita         89           -0.987
10  1964 Stan Mikita         87           -1.04 
# ℹ 58 more rows
…
summary = final_df |>
  group_by(yearID) |>
  summarize(avg_games = mean(games), avg_gls = mean(gls), avg_pts = mean(pts),avg_ppg = avg_pts/avg_games, avg_gpg = avg_gls/avg_games) ## generating summary statistics like points per game and goals per game for defensemen
summary

# A tibble: 67 × 6
   yearID avg_games avg_gls avg_pts avg_ppg avg_gpg
    <int>     <dbl>   <dbl>   <dbl>   <dbl>   <dbl>
 1   1955      45.2    2.09    11.3   0.250  0.0463
 2   1956      48.6    2.35    12.9   0.265  0.0483
 3   1957      44.7    2.30    11.6   0.260  0.0516
 4   1958      53.1    3.03    14.7   0.277  0.0570
 5   1959      46.9    3.05    13.8   0.293  0.0649
 6   1960      51.8    2.78    14.2   0.273  0.0535
 7   1961      50.3    3.31    15.7   0.313  0.0658
 8   1962      44.7    2.40    12.5   0.279  0.0538
 9   1963      41.2    2.4     11.6   0.282  0.0583
10   1964      44.4    2.38    13.1   0.295  0.0536
# ℹ 57 more rows
…
summary2 = final_df2 |>
  group_by(yearID) |>
  summarize(avg_games = mean(games), avg_gls = mean(gls), avg_pts = mean(pts),avg_ppg = avg_pts/avg_games, avg_gpg = avg_gls/avg_games) |>
  arrange(desc(avg_ppg))
summary2 ##generating summary statistics for the forwards data

# A tibble: 67 × 6
   yearID avg_games avg_gls avg_pts avg_ppg avg_gpg
    <int>     <dbl>   <dbl>   <dbl>   <dbl>   <dbl>
 1   1992      80.2    41.5   101.     1.26   0.517
 2   1981      76.8    40.3    95.8    1.25   0.524
 3   1988      75.4    39.5    91.5    1.21   0.524
 4   1983      75.6    39.2    91.8    1.21   0.519
 5   1985      76.4    38.9    91.1    1.19   0.509
 6   1987      76.2    39.1    90.5    1.19   0.513
 7   1984      77.4    39.2    91.3    1.18   0.507
 8   1989      76.9    37.8    90.2    1.17   0.491
 9   1995      77.2    36.6    90.0    1.17   0.474
10   1980      76.2    38.3    88.2    1.16   0.503
# ℹ 57 more rows

summary

# A tibble: 67 × 6
   yearID avg_games avg_gls avg_pts avg_ppg avg_gpg
    <int>     <dbl>   <dbl>   <dbl>   <dbl>   <dbl>
 1   1955      45.2    2.09    11.3   0.250  0.0463
 2   1956      48.6    2.35    12.9   0.265  0.0483
 3   1957      44.7    2.30    11.6   0.260  0.0516
 4   1958      53.1    3.03    14.7   0.277  0.0570
 5   1959      46.9    3.05    13.8   0.293  0.0649
 6   1960      51.8    2.78    14.2   0.273  0.0535
 7   1961      50.3    3.31    15.7   0.313  0.0658
 8   1962      44.7    2.40    12.5   0.279  0.0538
 9   1963      41.2    2.4     11.6   0.282  0.0583
10   1964      44.4    2.38    13.1   0.295  0.0536
# ℹ 57 more rows

summary2 ## to access the summary dataset without running the massive chunks more than once

# A tibble: 67 × 6
   yearID avg_games avg_gls avg_pts avg_ppg avg_gpg
    <int>     <dbl>   <dbl>   <dbl>   <dbl>   <dbl>
 1   1992      80.2    41.5   101.     1.26   0.517
 2   1981      76.8    40.3    95.8    1.25   0.524
 3   1988      75.4    39.5    91.5    1.21   0.524
 4   1983      75.6    39.2    91.8    1.21   0.519
 5   1985      76.4    38.9    91.1    1.19   0.509
 6   1987      76.2    39.1    90.5    1.19   0.513
 7   1984      77.4    39.2    91.3    1.18   0.507
 8   1989      76.9    37.8    90.2    1.17   0.491
 9   1995      77.2    36.6    90.0    1.17   0.474
10   1980      76.2    38.3    88.2    1.16   0.503
# ℹ 57 more rows
…
art_ross |>
  arrange(desc(pts)) |>
  select(year, Winner, pts) ## used this to look at the dataframe to see how many high scoring seasons were in the 80s

# A tibble: 68 × 3
    year Winner          pts
   <int> <chr>         <int>
 1  1985 Wayne Gretzky   215
 2  1981 Wayne Gretzky   212
 3  1984 Wayne Gretzky   208
 4  1983 Wayne Gretzky   205
 5  1988 Mario Lemieux   199
 6  1982 Wayne Gretzky   196
 7  1986 Wayne Gretzky   183
 8  1987 Mario Lemieux   168
 9  1980 Wayne Gretzky   164
10  1990 Wayne Gretzky   163
# ℹ 58 more rows
…
scoring_names_dec = scoring_names |>
  mutate(decade = yearID %/% 10 * 10) ##decade-izing the above set

Comparing Goalscoring Seasons to Their Contemporaries

scoring_names_dec |>
  group_by(decade) |>
  mutate(avg_goals = mean(goals_num)) |>
  mutate(goal_diff = goals_num - avg_goals) |>
  select(goal_diff, leader_name, goals_num, yearID, decade) |>
  arrange(desc(goal_diff)) ## expectation by decade

# A tibble: 68 × 5
# Groups:   decade [8]
   goal_diff leader_name                          goals_num yearID decade
       <dbl> <chr>                                    <int>  <int>  <dbl>
 1      24.2 "Brett Hull "                               86   1991   1990
 2      18.8 "Wayne Gretzky "                            92   1982   1980
 3      14.2 "Alexander Mogilny , Teemu Selänne "        76   1993   1990
 4      14.1 "Phil Esposito "                            76   1971   1970
 5      13.8 "Wayne Gretzky "                            87   1984   1980
 6      11.8 "Mario Lemieux "                            85   1989   1980
 7      11   "Bobby Hull "                               58   1969   1960
 8      10.9 "Steven Stamkos "                           60   2012   2010
 9      10.8 "Connor McDavid "                           64   2023   2020
10      10.7 "Alex Ovechkin "                            65   2008   2000
# ℹ 58 more rows
…
scoring_df |>
  arrange(desc(standard_diff)) |>
  select(year_id, standard_diff, avg_goals_standard, sv_pct_standard)

# A tibble: 68 × 4
   year_id standard_diff[,1] avg_goals_standard[,1] sv_pct_standard[,1]
     <int>             <dbl>                  <dbl>               <dbl>
 1    1981              4.59                   2.30               -2.29
 2    1985              4.27                   2.20               -2.07
 3    1983              4.10                   2.12               -1.98
 4    1984              3.97                   1.99               -1.98
 5    1982              3.89                   1.92               -1.98
 6    1980              3.62                   1.87               -1.75
 7    1988              3.39                   1.61               -1.78
 8    1986              3.08                   1.43               -1.65
 9    1987              3.03                   1.54               -1.49
10    1989              3.01                   1.46               -1.55
# ℹ 58 more rows
…
